40823143: ('inv', 'ons')
40923101: ('nx', 'slvs')
40923102: ('inv', 'slvs')
40923103: ('nx', 'ons')
40923104: ('sw', 'slvs')
40923105: ('sw', 'nx')
40923106: ('sw', 'ons')
40923107: ('sw', 'inv')
40923108: ('ons', 'slvs')
40923109: ('inv', 'nx')
40923110: ('inv', 'ons')
40923111: ('nx', 'slvs')
40923113: ('inv', 'slvs')
40923114: ('nx', 'ons')
40923115: ('sw', 'slvs')
40923116: ('sw', 'nx')
40923117: ('sw', 'ons')
40923118: ('sw', 'inv')
40923119: ('ons', 'slvs')
40923120: ('inv', 'nx')
40923121: ('inv', 'ons')
40923122: ('nx', 'slvs')
40923123: ('inv', 'slvs')
40923124: ('nx', 'ons')
40923125: ('sw', 'slvs')
40923126: ('sw', 'nx')
40923127: ('sw', 'ons')
40923128: ('sw', 'inv')
40923129: ('ons', 'slvs')
40923130: ('inv', 'nx')
40923131: ('inv', 'ons')
40923133: ('nx', 'slvs')
40923134: ('inv', 'slvs')
40923135: ('nx', 'ons')
40923136: ('sw', 'slvs')
40923137: ('sw', 'nx')
40923138: ('sw', 'ons')
40923139: ('sw', 'inv')
40923140: ('ons', 'slvs')
40923142: ('inv', 'nx')
40923143: ('inv', 'ons')
40923144: ('nx', 'slvs')
40923145: ('inv', 'slvs')
40923146: ('nx', 'ons')
40923147: ('sw', 'slvs')
40923148: ('sw', 'nx')
40923149: ('sw', 'ons')
40923150: ('sw', 'inv')
40923151: ('ons', 'slvs')
40923152: ('inv', 'nx')
40923153: ('inv', 'ons')
40923154: ('nx', 'slvs')
40923156: ('inv', 'slvs')
40923157: ('nx', 'ons')
40971134: ('sw', 'slvs')
41026102: ('sw', 'nx')
