--------------------
(1,1) 40923101
(1,2) 40923102
(1,3) 40923103
(1,4) 40923104
(1,5) 40923105
(1,6) 40923106
(1,7) 40923107
(1,8) 40923108
(1,9) 40923109
--------------------
(2,1) 40923110
(2,2) 40923111
(2,3) 40923113
(2,4) 40923114
(2,5) 40923115
(2,6) 40923116
(2,7) 40923117
(2,8) 40923118
(2,9) 40923119
--------------------
(3,1) 40923120
(3,2) 40923121
(3,3) 40923122
(3,4) 40923123
(3,5) 40923124
(3,6) 40923125
(3,7) 40923126
(3,8) 40923127
(3,9) 40923128
--------------------
(4,1) 40923129
(4,2) 40923130
(4,3) 40923131
(4,4) 40923133
(4,5) 40923134
(4,6) 40923135
(4,7) 40923136
(4,8) 40923137
(4,9) 40923138
--------------------
(5,1) 40923139
(5,2) 40923140
(5,3) 40923142
(5,4) 40923143
(5,5) 40923144
(5,6) 40923145
(5,7) 40923146
(5,8) 40923147
(5,9) 40923148
--------------------
(6,1) 40923149
(6,2) 40923150
(6,3) 40923151
(6,4) 40923152
(6,5) 40923153
(6,6) 40923154
(6,7) 40923156
(6,8) 40923157
(6,9) 40971134
--------------------
(7,1) 41026102
(7,2) 40823143
