2b cadw1	Github 帳號	目前所在位置	是否能在住宿地遠距上課	是否同意實體分流上課	是否同意全時遠距上課	其他補充意見
40723126						
40723135						
40723217	40723217	虎尾	是	是	是	所以是要整學期都遠距嗎?
40732331						
40823114	40823114	虎尾	是	是	是	
40823115	40823115	虎尾	是	是	是	
40823117	pyc40823117	虎尾	是	是	是	
40823119						
40823122	40823122	虎尾	是	是	是	
40823127	40823127	虎尾	是	是	是	
40823146	40823146	虎尾	是	是	是	
40823148	40823148	虎尾租屋處	是	是	是	
40823215						
40871106	40871106	虎尾	是	是	是	
40923201	40923201	虎尾	是	是	是	
40923203	40923203	虎尾	是	是	是	
40923204	40923204	虎尾	是	是	是	
40923205	40923205	虎尾	是	是	是	
40923206	40923206-1	苗栗	是	是	是	
40923207	40923207	新北	是	是	否	
40923208	nfu40923208	虎尾	是	是	是	
40923209	40923209	彰化	是	是	否	
40923210	40923210	台南	是	是	是	
40923211	40923211	台中	是	是	還行	
40923212	40923212	南投	是	是	是	
40923213	40923213	台北	是	是	是	
40923214						
40923216	40923216	新北	是	是	是	
40923217	40923217	彰化	是	是	是	
40923218	40923218	桃園	是	是	是	
40923219	409232194	虎尾	是	是	是	
40923220	40923220	虎尾	是	是	是	
40923221	40923221	台南	是	是	是	
40923223	40923223	新北	是	是	是	
40923224	40923224	台南	是	是	是	
40923225						
40923226	40923226	虎尾	是	是	是	
40923227	40923227	桃園	是	是	是	
40923228	40923228	虎尾	是	是	是	
40923229	40923229	新竹	是	是	是	
40923230	40923230	虎尾	是	是	是	
40923231	40923231	彰化	是	是	是	
40923232	40923232	台中	是	是		
40923233	40923233	彰化	是	 是	是	
40923234	40923234	中壢	是	是	是	
40923235	40923235	虎尾	是	是	是	
40923236	40923236	雲林	是	是	是	
40923237	40923237	彰化	是	是	是	
40923238	40923238	高雄	是	是	是	
40923239	40923239	嘉義	是	是	是	
40923240	40923240	虎尾	是	是	否	
40923241	40923241	虎尾	是	是	是	
40923242	40923242	虎尾	是	是	是	
40923243	40923243	虎尾租屋處	是	是	是	
40923244	40923244	虎尾	是	是	是	
40923245	40923245	虎尾	是	是	是	
40923246	40923246	虎尾	是	是	是	
40923247	40923247	虎尾	是	是	是	
40923248	40923248	虎尾	4	4	4	
40923249	40923249	虎尾	是	是	是	
40923250	40923250	台中	是	是	是	
40923251	40923251	新竹	是	是	是	
40923252	40923252	台北	是	是	是	
40923253	40923253	雲林	是	是	是	
40971220	40971220	彰化	是	是	是	
40971227	40971227	虎尾	是	是	是	
40971238						
